<svg xmlns="http://www.w3.org/2000/svg" xmlns:xlink="http://www.w3.org/1999/xlink" viewBox="0 0 127 127">
  <defs>
    <style>
      .cls-1 {
        fill: #fff;
      }

      .cls-2 {
        fill: #eb3333;
        font-size: 80px;
        font-family: ProximaSoft-Regular, Proxima Soft;
      }

      .cls-3 {
        filter: url(#Ellipse_348);
      }
    </style>
    <filter id="Ellipse_348" x="0" y="0" width="127" height="127" filterUnits="userSpaceOnUse">
      <feOffset dy="6" input="SourceAlpha"/>
      <feGaussianBlur stdDeviation="4.5" result="blur"/>
      <feFlood flood-opacity="0.102"/>
      <feComposite operator="in" in2="blur"/>
      <feComposite in="SourceGraphic"/>
    </filter>
  </defs>
  <g id="Group_367" data-name="Group 367" transform="translate(-116.5 -236.5)">
    <g class="cls-3" transform="matrix(1, 0, 0, 1, 116.5, 236.5)">
      <circle id="Ellipse_348-2" data-name="Ellipse 348" class="cls-1" cx="50" cy="50" r="50" transform="translate(13.5 7.5)"/>
    </g>
    <text id="_" data-name="!" class="cls-2" transform="translate(171 322)"><tspan x="0" y="0">!</tspan></text>
  </g>
</svg>
