<svg xmlns="http://www.w3.org/2000/svg" viewBox="0 0 8.528 8.528">
  <defs>
    <style>
      .cls-1 {
        fill: none;
        stroke: #fff;
        stroke-linecap: round;
        stroke-linejoin: round;
        stroke-width: 2px;
      }
    </style>
  </defs>
  <g id="Group_336" data-name="Group 336" transform="translate(1 1)">
    <path id="Path_856" data-name="Path 856" class="cls-1" d="M889.833,547.878l6.475-6.528" transform="translate(-889.807 -541.35)"/>
    <path id="Path_857" data-name="Path 857" class="cls-1" d="M0,6.528,6.475,0" transform="translate(6.528 0.026) rotate(90)"/>
  </g>
</svg>
